----------------------------------------------------------------------------------------------------

/

.bowerrc ( Listo NV )
.gitignore ( Listo NV )
Bitacora Homeopatía Mercy.txt NV ->
Gulpfile.js NV ->
README ( Listo NV )

----------------------------------------------------------------------------------------------------

/wp-content/themes/Homeopatia-Mercy/

footer.php ( Listo NV )
functions.php NV ->
header.php ( Listo NV )
index.html ( Listo NV )
index.php ( Listo NV )
page-content-full-width.php ( Listo NV )
part-banner.php ( Listo NV )
part-block-1.php ( Listo NV )
part-block-2.php ( Listo NV )
part-block-3.php ( Listo NV )
part-block-4.php ( Listo NV )
part-bottom.php ( Listo NV )
part-content-full-width.php ( Listo NV )
part-content.php ( Listo NV )
part-copyright.php ( Listo NV )
part-header.php ( Listo NV )
part-menu.php ( Listo NV )
part-woocommerce.php ( Listo NV )
style.css ( Listo NV )
woocommerce.php ( Listo NV )

----------------------------------------------------------------------------------------------------

/wp-content/themes/Homeopatia-Mercy/assets/

index.html ( Listo NV )

----------------------------------------------------------------------------------------------------

/wp-content/themes/Homeopatia-Mercy/assets/css/

app.scss NV ->
index.html ( Listo NV )

----------------------------------------------------------------------------------------------------

/wp-content/themes/Homeopatia-Mercy/assets/images/

----------------------------------------------------------------------------------------------------

/wp-content/themes/Homeopatia-Mercy/assets/js/

app.js ( Listo NV )
index.html ( Listo NV )

----------------------------------------------------------------------------------------------------

/wp-content/themes/Homeopatia-Mercy/build/

special.css ( Listo NV )

----------------------------------------------------------------------------------------------------